1 10 20
5 5 6
590300 590300 98
1 999999 525
20 22 16
201 210 89
900 1000 174
1 100 119
100 200 125
1000 2000 182
2000 5000 238
5000 6100 236
6050 6700 262
6500 10000 260
10 1 20
200 100 125
210 201 89
1000 900 174
10000 6500 260
493517 105880 449
46577 620091 470
227984 796144 509
974766 105597 525
357495 974780 525
720200 45234 509
842211 375584 525
340513 30488 443
832098 464266 509
567738 159500 470
89486 766777 509
357356 90914 443
41858 539493 470
39392 195037 383
494575 276222 449
136927 233744 443
919461 556557 525
909691 322121 525
553982 774135 509
2000 270951 443
8000 419304 449
642967 999000 525
100 75700 340
907233 80 525
242662 888542 525
1 11 20
11 111 119
111 1111 179
1111 11111 268
11111 111111 354
111111 999999 525
4 619372 470
522915 863426 525
580986 580990 191
266447 266450 195
672198 389871 509
186747 989898 525
41672 416720 449
9080 908090 525
1929 192919 383
247289 289247 407
900 18000 279
190200 290000 443
283641 522806 470
757284 635020 504
328059 924566 525
544605 849330 525
249093 946868 525
47169 502045 449
535538 529415 377
583695 181547 470
683333 201626 509
340152 627896 509
955018 398913 525
608209 468097 470
826616 182370 509
623135 835080 509
4685 69819 340
605799 667192 509
674682 674683 199
677083 918107 525
125676 994679 525
492848 448615 444
265260 478486 449
556731 242558 470
26661 941438 525
834150 579452 509
898214 244991 525
898882 196947 525
668955 117672 509
521955 552034 452
758576 932691 525
5755 685005 509
51748 9512 324
941535 254125 525
440256 127267 449
295033 730413 509
984401 262910 525
783514 148788 509
346687 231261 441
824650 137855 509
364204 949744 525
547208 78672 470
86431 35547 351
643219 68270 509
253184 321944 407
429363 422858 418
336978 16511 443
196144 404900 443
