....................
----------------------------------------------------------------------
Ran 20 tests in 0.117s

OK
Name             Stmts   Miss Branch BrPart  Cover   Missing
------------------------------------------------------------
Collatz.py          27      0     10      0   100%
TestCollatz.py      83      0      2      0   100%
------------------------------------------------------------
TOTAL              110      0     12      0   100%
